^C:\USERS\ARIEL\GOOGLE DRIVE\MAGSHIMIN\SECOND YEAR\ADV PROG 2\שיעורי בית\PROJECT TRIVIA\PROJECT TRIVIA\PROJECT TRIVIA\DATABASE.CPP|C:\USERS\ARIEL\GOOGLE DRIVE\MAGSHIMIN\SECOND YEAR\ADV PROG 2\שיעורי בית\PROJECT TRIVIA\PROJECT TRIVIA\PROJECT TRIVIA\GAME.CPP|C:\USERS\ARIEL\GOOGLE DRIVE\MAGSHIMIN\SECOND YEAR\ADV PROG 2\שיעורי בית\PROJECT TRIVIA\PROJECT TRIVIA\PROJECT TRIVIA\HELPER.CPP|C:\USERS\ARIEL\GOOGLE DRIVE\MAGSHIMIN\SECOND YEAR\ADV PROG 2\שיעורי בית\PROJECT TRIVIA\PROJECT TRIVIA\PROJECT TRIVIA\QUESTION.CPP|C:\USERS\ARIEL\GOOGLE DRIVE\MAGSHIMIN\SECOND YEAR\ADV PROG 2\שיעורי בית\PROJECT TRIVIA\PROJECT TRIVIA\PROJECT TRIVIA\RECIEVEDMESSAGE.CPP|C:\USERS\ARIEL\GOOGLE DRIVE\MAGSHIMIN\SECOND YEAR\ADV PROG 2\שיעורי בית\PROJECT TRIVIA\PROJECT TRIVIA\PROJECT TRIVIA\ROOM.CPP|C:\USERS\ARIEL\GOOGLE DRIVE\MAGSHIMIN\SECOND YEAR\ADV PROG 2\שיעורי בית\PROJECT TRIVIA\PROJECT TRIVIA\PROJECT TRIVIA\TRIVIASERVER.CPP|C:\USERS\ARIEL\GOOGLE DRIVE\MAGSHIMIN\SECOND YEAR\ADV PROG 2\שיעורי בית\PROJECT TRIVIA\PROJECT TRIVIA\PROJECT TRIVIA\USER.CPP|C:\USERS\ARIEL\GOOGLE DRIVE\MAGSHIMIN\SECOND YEAR\ADV PROG 2\שיעורי בית\PROJECT TRIVIA\PROJECT TRIVIA\PROJECT TRIVIA\VALIDATOR.CPP
C:\USERS\ARIEL\GOOGLE DRIVE\MAGSHIMIN\SECOND YEAR\ADV PROG 2\שיעורי בית\PROJECT TRIVIA\PROJECT TRIVIA\PROJECT TRIVIA\DEBUG\VC120.PDB
C:\USERS\ARIEL\GOOGLE DRIVE\MAGSHIMIN\SECOND YEAR\ADV PROG 2\שיעורי בית\PROJECT TRIVIA\PROJECT TRIVIA\PROJECT TRIVIA\DEBUG\VC120.IDB
C:\USERS\ARIEL\GOOGLE DRIVE\MAGSHIMIN\SECOND YEAR\ADV PROG 2\שיעורי בית\PROJECT TRIVIA\PROJECT TRIVIA\PROJECT TRIVIA\DEBUG\HELPER.OBJ
C:\USERS\ARIEL\GOOGLE DRIVE\MAGSHIMIN\SECOND YEAR\ADV PROG 2\שיעורי בית\PROJECT TRIVIA\PROJECT TRIVIA\PROJECT TRIVIA\DEBUG\RECIEVEDMESSAGE.OBJ
^C:\USERS\ARIEL\GOOGLE DRIVE\MAGSHIMIN\SECOND YEAR\ADV PROG 2\שיעורי בית\PROJECT TRIVIA\PROJECT TRIVIA\PROJECT TRIVIA\DATABASE.CPP
C:\USERS\ARIEL\GOOGLE DRIVE\MAGSHIMIN\SECOND YEAR\ADV PROG 2\שיעורי בית\PROJECT TRIVIA\PROJECT TRIVIA\PROJECT TRIVIA\DEBUG\VC120.PDB
^C:\USERS\ARIEL\GOOGLE DRIVE\MAGSHIMIN\SECOND YEAR\ADV PROG 2\שיעורי בית\PROJECT TRIVIA\PROJECT TRIVIA\PROJECT TRIVIA\GAME.CPP
C:\USERS\ARIEL\GOOGLE DRIVE\MAGSHIMIN\SECOND YEAR\ADV PROG 2\שיעורי בית\PROJECT TRIVIA\PROJECT TRIVIA\PROJECT TRIVIA\DEBUG\VC120.PDB
^C:\USERS\ARIEL\GOOGLE DRIVE\MAGSHIMIN\SECOND YEAR\ADV PROG 2\שיעורי בית\PROJECT TRIVIA\PROJECT TRIVIA\PROJECT TRIVIA\HELPER.CPP
C:\USERS\ARIEL\GOOGLE DRIVE\MAGSHIMIN\SECOND YEAR\ADV PROG 2\שיעורי בית\PROJECT TRIVIA\PROJECT TRIVIA\PROJECT TRIVIA\DEBUG\VC120.PDB
^C:\USERS\ARIEL\GOOGLE DRIVE\MAGSHIMIN\SECOND YEAR\ADV PROG 2\שיעורי בית\PROJECT TRIVIA\PROJECT TRIVIA\PROJECT TRIVIA\QUESTION.CPP
C:\USERS\ARIEL\GOOGLE DRIVE\MAGSHIMIN\SECOND YEAR\ADV PROG 2\שיעורי בית\PROJECT TRIVIA\PROJECT TRIVIA\PROJECT TRIVIA\DEBUG\VC120.PDB
^C:\USERS\ARIEL\GOOGLE DRIVE\MAGSHIMIN\SECOND YEAR\ADV PROG 2\שיעורי בית\PROJECT TRIVIA\PROJECT TRIVIA\PROJECT TRIVIA\RECIEVEDMESSAGE.CPP
C:\USERS\ARIEL\GOOGLE DRIVE\MAGSHIMIN\SECOND YEAR\ADV PROG 2\שיעורי בית\PROJECT TRIVIA\PROJECT TRIVIA\PROJECT TRIVIA\DEBUG\VC120.PDB
^C:\USERS\ARIEL\GOOGLE DRIVE\MAGSHIMIN\SECOND YEAR\ADV PROG 2\שיעורי בית\PROJECT TRIVIA\PROJECT TRIVIA\PROJECT TRIVIA\ROOM.CPP
C:\USERS\ARIEL\GOOGLE DRIVE\MAGSHIMIN\SECOND YEAR\ADV PROG 2\שיעורי בית\PROJECT TRIVIA\PROJECT TRIVIA\PROJECT TRIVIA\DEBUG\VC120.PDB
^C:\USERS\ARIEL\GOOGLE DRIVE\MAGSHIMIN\SECOND YEAR\ADV PROG 2\שיעורי בית\PROJECT TRIVIA\PROJECT TRIVIA\PROJECT TRIVIA\TRIVIASERVER.CPP
C:\USERS\ARIEL\GOOGLE DRIVE\MAGSHIMIN\SECOND YEAR\ADV PROG 2\שיעורי בית\PROJECT TRIVIA\PROJECT TRIVIA\PROJECT TRIVIA\DEBUG\VC120.PDB
C:\USERS\ARIEL\GOOGLE DRIVE\MAGSHIMIN\SECOND YEAR\ADV PROG 2\שיעורי בית\PROJECT TRIVIA\PROJECT TRIVIA\PROJECT TRIVIA\DEBUG\VC120.IDB
C:\USERS\ARIEL\GOOGLE DRIVE\MAGSHIMIN\SECOND YEAR\ADV PROG 2\שיעורי בית\PROJECT TRIVIA\PROJECT TRIVIA\PROJECT TRIVIA\DEBUG\TRIVIASERVER.OBJ
^C:\USERS\ARIEL\GOOGLE DRIVE\MAGSHIMIN\SECOND YEAR\ADV PROG 2\שיעורי בית\PROJECT TRIVIA\PROJECT TRIVIA\PROJECT TRIVIA\USER.CPP
C:\USERS\ARIEL\GOOGLE DRIVE\MAGSHIMIN\SECOND YEAR\ADV PROG 2\שיעורי בית\PROJECT TRIVIA\PROJECT TRIVIA\PROJECT TRIVIA\DEBUG\VC120.PDB
^C:\USERS\ARIEL\GOOGLE DRIVE\MAGSHIMIN\SECOND YEAR\ADV PROG 2\שיעורי בית\PROJECT TRIVIA\PROJECT TRIVIA\PROJECT TRIVIA\VALIDATOR.CPP
C:\USERS\ARIEL\GOOGLE DRIVE\MAGSHIMIN\SECOND YEAR\ADV PROG 2\שיעורי בית\PROJECT TRIVIA\PROJECT TRIVIA\PROJECT TRIVIA\DEBUG\VC120.PDB
^C:\USERS\ARIEL\GOOGLE DRIVE\MAGSHIMIN\SECOND YEAR\ADV PROG 2\שיעורי בית\PROJECT TRIVIA\PROJECT TRIVIA\PROJECT TRIVIA\DATABASE.CPP|C:\USERS\ARIEL\GOOGLE DRIVE\MAGSHIMIN\SECOND YEAR\ADV PROG 2\שיעורי בית\PROJECT TRIVIA\PROJECT TRIVIA\PROJECT TRIVIA\GAME.CPP|C:\USERS\ARIEL\GOOGLE DRIVE\MAGSHIMIN\SECOND YEAR\ADV PROG 2\שיעורי בית\PROJECT TRIVIA\PROJECT TRIVIA\PROJECT TRIVIA\QUESTION.CPP|C:\USERS\ARIEL\GOOGLE DRIVE\MAGSHIMIN\SECOND YEAR\ADV PROG 2\שיעורי בית\PROJECT TRIVIA\PROJECT TRIVIA\PROJECT TRIVIA\ROOM.CPP|C:\USERS\ARIEL\GOOGLE DRIVE\MAGSHIMIN\SECOND YEAR\ADV PROG 2\שיעורי בית\PROJECT TRIVIA\PROJECT TRIVIA\PROJECT TRIVIA\TRIVIASERVER.CPP|C:\USERS\ARIEL\GOOGLE DRIVE\MAGSHIMIN\SECOND YEAR\ADV PROG 2\שיעורי בית\PROJECT TRIVIA\PROJECT TRIVIA\PROJECT TRIVIA\USER.CPP|C:\USERS\ARIEL\GOOGLE DRIVE\MAGSHIMIN\SECOND YEAR\ADV PROG 2\שיעורי בית\PROJECT TRIVIA\PROJECT TRIVIA\PROJECT TRIVIA\VALIDATOR.CPP
C:\USERS\ARIEL\GOOGLE DRIVE\MAGSHIMIN\SECOND YEAR\ADV PROG 2\שיעורי בית\PROJECT TRIVIA\PROJECT TRIVIA\PROJECT TRIVIA\DEBUG\VC120.PDB
C:\USERS\ARIEL\GOOGLE DRIVE\MAGSHIMIN\SECOND YEAR\ADV PROG 2\שיעורי בית\PROJECT TRIVIA\PROJECT TRIVIA\PROJECT TRIVIA\DEBUG\VC120.IDB
C:\USERS\ARIEL\GOOGLE DRIVE\MAGSHIMIN\SECOND YEAR\ADV PROG 2\שיעורי בית\PROJECT TRIVIA\PROJECT TRIVIA\PROJECT TRIVIA\DEBUG\ROOM.OBJ
^C:\USERS\ARIEL\GOOGLE DRIVE\MAGSHIMIN\SECOND YEAR\ADV PROG 2\שיעורי בית\PROJECT TRIVIA\PROJECT TRIVIA\PROJECT TRIVIA\DATABASE.CPP|C:\USERS\ARIEL\GOOGLE DRIVE\MAGSHIMIN\SECOND YEAR\ADV PROG 2\שיעורי בית\PROJECT TRIVIA\PROJECT TRIVIA\PROJECT TRIVIA\GAME.CPP|C:\USERS\ARIEL\GOOGLE DRIVE\MAGSHIMIN\SECOND YEAR\ADV PROG 2\שיעורי בית\PROJECT TRIVIA\PROJECT TRIVIA\PROJECT TRIVIA\QUESTION.CPP|C:\USERS\ARIEL\GOOGLE DRIVE\MAGSHIMIN\SECOND YEAR\ADV PROG 2\שיעורי בית\PROJECT TRIVIA\PROJECT TRIVIA\PROJECT TRIVIA\TRIVIASERVER.CPP|C:\USERS\ARIEL\GOOGLE DRIVE\MAGSHIMIN\SECOND YEAR\ADV PROG 2\שיעורי בית\PROJECT TRIVIA\PROJECT TRIVIA\PROJECT TRIVIA\USER.CPP|C:\USERS\ARIEL\GOOGLE DRIVE\MAGSHIMIN\SECOND YEAR\ADV PROG 2\שיעורי בית\PROJECT TRIVIA\PROJECT TRIVIA\PROJECT TRIVIA\VALIDATOR.CPP
C:\USERS\ARIEL\GOOGLE DRIVE\MAGSHIMIN\SECOND YEAR\ADV PROG 2\שיעורי בית\PROJECT TRIVIA\PROJECT TRIVIA\PROJECT TRIVIA\DEBUG\VC120.PDB
C:\USERS\ARIEL\GOOGLE DRIVE\MAGSHIMIN\SECOND YEAR\ADV PROG 2\שיעורי בית\PROJECT TRIVIA\PROJECT TRIVIA\PROJECT TRIVIA\DEBUG\VC120.IDB
C:\USERS\ARIEL\GOOGLE DRIVE\MAGSHIMIN\SECOND YEAR\ADV PROG 2\שיעורי בית\PROJECT TRIVIA\PROJECT TRIVIA\PROJECT TRIVIA\DEBUG\VALIDATOR.OBJ
^C:\USERS\ARIEL\GOOGLE DRIVE\MAGSHIMIN\SECOND YEAR\ADV PROG 2\שיעורי בית\PROJECT TRIVIA\PROJECT TRIVIA\PROJECT TRIVIA\DATABASE.CPP|C:\USERS\ARIEL\GOOGLE DRIVE\MAGSHIMIN\SECOND YEAR\ADV PROG 2\שיעורי בית\PROJECT TRIVIA\PROJECT TRIVIA\PROJECT TRIVIA\GAME.CPP|C:\USERS\ARIEL\GOOGLE DRIVE\MAGSHIMIN\SECOND YEAR\ADV PROG 2\שיעורי בית\PROJECT TRIVIA\PROJECT TRIVIA\PROJECT TRIVIA\HELPER.CPP|C:\USERS\ARIEL\GOOGLE DRIVE\MAGSHIMIN\SECOND YEAR\ADV PROG 2\שיעורי בית\PROJECT TRIVIA\PROJECT TRIVIA\PROJECT TRIVIA\QUESTION.CPP|C:\USERS\ARIEL\GOOGLE DRIVE\MAGSHIMIN\SECOND YEAR\ADV PROG 2\שיעורי בית\PROJECT TRIVIA\PROJECT TRIVIA\PROJECT TRIVIA\RECIEVEDMESSAGE.CPP|C:\USERS\ARIEL\GOOGLE DRIVE\MAGSHIMIN\SECOND YEAR\ADV PROG 2\שיעורי בית\PROJECT TRIVIA\PROJECT TRIVIA\PROJECT TRIVIA\ROOM.CPP|C:\USERS\ARIEL\GOOGLE DRIVE\MAGSHIMIN\SECOND YEAR\ADV PROG 2\שיעורי בית\PROJECT TRIVIA\PROJECT TRIVIA\PROJECT TRIVIA\TRIVIASERVER.CPP|C:\USERS\ARIEL\GOOGLE DRIVE\MAGSHIMIN\SECOND YEAR\ADV PROG 2\שיעורי בית\PROJECT TRIVIA\PROJECT TRIVIA\PROJECT TRIVIA\USER.CPP
C:\USERS\ARIEL\GOOGLE DRIVE\MAGSHIMIN\SECOND YEAR\ADV PROG 2\שיעורי בית\PROJECT TRIVIA\PROJECT TRIVIA\PROJECT TRIVIA\DEBUG\VC120.PDB
C:\USERS\ARIEL\GOOGLE DRIVE\MAGSHIMIN\SECOND YEAR\ADV PROG 2\שיעורי בית\PROJECT TRIVIA\PROJECT TRIVIA\PROJECT TRIVIA\DEBUG\VC120.IDB
C:\USERS\ARIEL\GOOGLE DRIVE\MAGSHIMIN\SECOND YEAR\ADV PROG 2\שיעורי בית\PROJECT TRIVIA\PROJECT TRIVIA\PROJECT TRIVIA\DEBUG\DATABASE.OBJ
C:\USERS\ARIEL\GOOGLE DRIVE\MAGSHIMIN\SECOND YEAR\ADV PROG 2\שיעורי בית\PROJECT TRIVIA\PROJECT TRIVIA\PROJECT TRIVIA\DEBUG\GAME.OBJ
C:\USERS\ARIEL\GOOGLE DRIVE\MAGSHIMIN\SECOND YEAR\ADV PROG 2\שיעורי בית\PROJECT TRIVIA\PROJECT TRIVIA\PROJECT TRIVIA\DEBUG\QUESTION.OBJ
C:\USERS\ARIEL\GOOGLE DRIVE\MAGSHIMIN\SECOND YEAR\ADV PROG 2\שיעורי בית\PROJECT TRIVIA\PROJECT TRIVIA\PROJECT TRIVIA\DEBUG\USER.OBJ
C:\USERS\ARIEL\GOOGLE DRIVE\MAGSHIMIN\SECOND YEAR\ADV PROG 2\שיעורי בית\PROJECT TRIVIA\PROJECT TRIVIA\PROJECT TRIVIA\DEBUG\HELPER.OBJ
C:\USERS\ARIEL\GOOGLE DRIVE\MAGSHIMIN\SECOND YEAR\ADV PROG 2\שיעורי בית\PROJECT TRIVIA\PROJECT TRIVIA\PROJECT TRIVIA\DEBUG\RECIEVEDMESSAGE.OBJ
C:\USERS\ARIEL\GOOGLE DRIVE\MAGSHIMIN\SECOND YEAR\ADV PROG 2\שיעורי בית\PROJECT TRIVIA\PROJECT TRIVIA\PROJECT TRIVIA\DEBUG\ROOM.OBJ
^C:\USERS\ARIEL\GOOGLE DRIVE\MAGSHIMIN\SECOND YEAR\ADV PROG 2\שיעורי בית\PROJECT TRIVIA\PROJECT TRIVIA\PROJECT TRIVIA\ROOM.CPP|C:\USERS\ARIEL\GOOGLE DRIVE\MAGSHIMIN\SECOND YEAR\ADV PROG 2\שיעורי בית\PROJECT TRIVIA\PROJECT TRIVIA\PROJECT TRIVIA\TRIVIASERVER.CPP
C:\USERS\ARIEL\GOOGLE DRIVE\MAGSHIMIN\SECOND YEAR\ADV PROG 2\שיעורי בית\PROJECT TRIVIA\PROJECT TRIVIA\PROJECT TRIVIA\DEBUG\VC120.PDB
C:\USERS\ARIEL\GOOGLE DRIVE\MAGSHIMIN\SECOND YEAR\ADV PROG 2\שיעורי בית\PROJECT TRIVIA\PROJECT TRIVIA\PROJECT TRIVIA\DEBUG\VC120.IDB
C:\USERS\ARIEL\GOOGLE DRIVE\MAGSHIMIN\SECOND YEAR\ADV PROG 2\שיעורי בית\PROJECT TRIVIA\PROJECT TRIVIA\PROJECT TRIVIA\DEBUG\ROOM.OBJ
^C:\USERS\ARIEL\GOOGLE DRIVE\MAGSHIMIN\SECOND YEAR\ADV PROG 2\שיעורי בית\PROJECT TRIVIA\PROJECT TRIVIA\PROJECT TRIVIA\SQLITE3.C
C:\USERS\ARIEL\GOOGLE DRIVE\MAGSHIMIN\SECOND YEAR\ADV PROG 2\שיעורי בית\PROJECT TRIVIA\PROJECT TRIVIA\PROJECT TRIVIA\DEBUG\VC120.PDB
C:\USERS\ARIEL\GOOGLE DRIVE\MAGSHIMIN\SECOND YEAR\ADV PROG 2\שיעורי בית\PROJECT TRIVIA\PROJECT TRIVIA\PROJECT TRIVIA\DEBUG\VC120.IDB
C:\USERS\ARIEL\GOOGLE DRIVE\MAGSHIMIN\SECOND YEAR\ADV PROG 2\שיעורי בית\PROJECT TRIVIA\PROJECT TRIVIA\PROJECT TRIVIA\DEBUG\SQLITE3.OBJ
^C:\USERS\ARIEL\GOOGLE DRIVE\MAGSHIMIN\SECOND YEAR\ADV PROG 2\שיעורי בית\PROJECT TRIVIA\PROJECT TRIVIA\PROJECT TRIVIA\MAIN.CPP
C:\USERS\ARIEL\GOOGLE DRIVE\MAGSHIMIN\SECOND YEAR\ADV PROG 2\שיעורי בית\PROJECT TRIVIA\PROJECT TRIVIA\PROJECT TRIVIA\DEBUG\VC120.PDB
C:\USERS\ARIEL\GOOGLE DRIVE\MAGSHIMIN\SECOND YEAR\ADV PROG 2\שיעורי בית\PROJECT TRIVIA\PROJECT TRIVIA\PROJECT TRIVIA\DEBUG\VC120.IDB
C:\USERS\ARIEL\GOOGLE DRIVE\MAGSHIMIN\SECOND YEAR\ADV PROG 2\שיעורי בית\PROJECT TRIVIA\PROJECT TRIVIA\PROJECT TRIVIA\DEBUG\MAIN.OBJ
